Does Airbnb Cause Rent Prices to Increase?
…
nyc_rent_df <- nyc_rent_df %>% 
    mutate(Date = "MonthlyRentPrice") %>% # add a new column that will hold the new column names
    gather(Date, MonthlyRentPrice) # gather the data so that the columns become the rows

library(readr)
library(lubridate)

final_nyc_rent_df <- as_tibble(nyc_rent_df) %>%  # convert to a tibble
    mutate(Date = ymd(Date)) %>%  # ensure the Date column is a date
    mutate(NightlyRentPrice = MonthlyRentPrice / 30) %>% 
    select(-MonthlyRentPrice) # drop the monthly rent price as it is not needed anymore

final_nyc_rent_df

## # A tibble: 50 x 2
##    Date       NightlyRentPrice
##    <date>                <dbl>
##  1 2014-01-01             65.9
##  2 2014-10-01             67.7
##  3 2014-11-01             67.7
##  4 2014-12-01             67.6
##  5 2014-02-01             65.8
##  6 2014-03-01             65.9
##  7 2014-04-01             66.1
##  8 2014-05-01             66.4
##  9 2014-06-01             66.7
## 10 2014-07-01             67.3
## # ... with 40 more rows
…
    # get rid of the dollar sign so the column can parsed as numeric
    df$price <- as.numeric(df$price)
    median_price <- median(df$price) # calculate the median price
    
    # get and parse the date from the file name
    extracted_date <- str_extract(file,"\\d{4}-\\d+")
    parsed_date <- ymd(extracted_date, truncated = 2)
    
    # now we have the median price, so add the date and median price to the Airbnb data frame
    airbnb_df <- rbind(airbnb_df, data.frame(Date=parsed_date, NightlyAirbnbPrice=median_price))
}
final_nyc_airbnb_df <- as_tibble(airbnb_df)
final_nyc_airbnb_df

## # A tibble: 35 x 2
##    Date       NightlyAirbnbPrice
##    <date>                  <dbl>
##  1 2015-01-01               84.0
##  2 2015-10-01               80.0
##  3 2015-11-01               80.0
##  4 2015-12-01               79.0
##  5 2015-03-01               80.0
##  6 2015-05-01               85.0
##  7 2015-06-01               85.0
##  8 2015-08-01               80.0
##  9 2015-09-01               80.0
## 10 2016-01-01               75.0
## # ... with 25 more rows

Our last step is make sure both data frames have the same time periods and are in one data frame. If we take a look at the rent data time period, it goes from January 2014 to February 2018. The Airbnb data time period goes from January 2015 to March 2018 with some gaps. Lets now trim and remove from both data frames so they match in terms of time periods.

We will perform an inner_join on the Date to only keep dates appearing in both data frames.

library(tidyr)

final_df <- final_nyc_rent_df %>% 
    inner_join(final_nyc_airbnb_df, by="Date")

final_df

## # A tibble: 34 x 3
##    Date       NightlyRentPrice NightlyAirbnbPrice
##    <date>                <dbl>              <dbl>
##  1 2015-01-01             67.4               84.0
##  2 2015-10-01             69.0               80.0
##  3 2015-11-01             68.8               80.0
##  4 2015-12-01             68.6               79.0
##  5 2015-03-01             67.6               80.0
##  6 2015-05-01             68.0               85.0
##  7 2015-06-01             68.3               85.0
##  8 2015-08-01             69.1               80.0
##  9 2015-09-01             69.1               80.0
## 10 2016-01-01             68.3               75.0
## # ... with 24 more rows
…
Now lets graph the difference between the Airbnb price and apartment price. First, lets create a new column for the differnce between the Airbnb and apartment price.

diff_df <- final_df %>% 
    mutate(diff = NightlyAirbnbPrice - NightlyRentPrice)

diff_df

## # A tibble: 34 x 4
##    Date       NightlyRentPrice NightlyAirbnbPrice  diff
##    <date>                <dbl>              <dbl> <dbl>
##  1 2015-01-01             67.4               84.0 16.6 
##  2 2015-10-01             69.0               80.0 11.0 
##  3 2015-11-01             68.8               80.0 11.2 
##  4 2015-12-01             68.6               79.0 10.4 
##  5 2015-03-01             67.6               80.0 12.4 
##  6 2015-05-01             68.0               85.0 17.0 
##  7 2015-06-01             68.3               85.0 16.7 
##  8 2015-08-01             69.1               80.0 10.9 
##  9 2015-09-01             69.1               80.0 10.9 
## 10 2016-01-01             68.3               75.0  6.67
## # ... with 24 more rows
…
